%YAML 1.1
%TAG !u! tag:unity3d.com,2011:
--- !u!1045 &1
EditorBuildSettings:
  m_ObjectHideFlags: 0
  serializedVersion: 2
  m_Scenes:
  - enabled: 1
    path: Assets/Scenes/MenuScene.unity
    guid: 3ed2d5895db218d40b016e660ee18495
  - enabled: 1
    path: Assets/Scenes/SampleScene.unity
    guid: 9fc0d4010bbf28b4594072e72b8655ab
  m_configObjects: {}
  m_UseUCBPForAssetBundles: 0
